lab2/project_2.sim/sim_1/behav/xsim/simulate.log
Time resolution is 1 ps

Matrix A is:

  79  126   87 
  15   20  123 
  33   76   84 

Matrix B is:

  23   40   58 
  64   47   51 
 108   34  119 

The result of C = A x B is:

  19277   12040   21361 
  14909    5722   16527 
  14695    7748   15786 


Matrix A is:

 255  255  255 
 255  255  255 
 255  255  255 

Matrix B is:

 255  255  255 
 255  255  255 
 255  255  255 

The result of C = A x B is:

  64003   64003   64003 
  64003   64003   64003 
  64003   64003   64003 


Matrix A is:

 255  255  255 
 255  255  255 
 255  255  255 

Matrix B is:

   0  255  255 
   0  255    0 
 255    0  255 

The result of C = A x B is:

  65025  130050  130050 
  65025  130050  130050 
  65025  130050  130050 

